{
    "created": "2019-11-20T18:40:51.559859Z",
    "digest": "0f5e6de0b932cdc1f56ee7daa2ef9c751c2ec7725fc500dcab4f697c6bf488d4",
    "id": "ta1-perspecta-pipeline-uu4-svm",
    "inputs": [
        {
            "name": "inputs"
        }
    ],
    "outputs": [
        {
            "data": "steps.3.produce",
            "name": "output predictions"
        }
    ],
    "schema": "https://metadata.datadrivendiscovery.org/schemas/v0/pipeline.json",
    "steps": [
        {
            "arguments": {
                "inputs": {
                    "data": "inputs.0",
                    "type": "CONTAINER"
                }
            },
            "outputs": [
                {
                    "id": "produce"
                }
            ],
            "primitive": {
                "digest": "6a80776d244347f0d29f4358df1cd0286c25f67e03a7e2ee517c6e853e6a9d1f",
                "id": "f31f8c1f-d1c5-43e5-a4b2-2ae4a761ef2e",
                "name": "Denormalize datasets",
                "python_path": "d3m.primitives.data_transformation.denormalize.Common",
                "version": "0.2.0"
            },
            "type": "PRIMITIVE"
        },
        {
            "arguments": {
                "inputs": {
                    "data": "steps.0.produce",
                    "type": "CONTAINER"
                }
            },
            "outputs": [
                {
                    "id": "produce"
                }
            ],
            "primitive": {
                "digest": "a141e6821de7ae586968b0986237745a5510850e6940cf946db9d50d3828b030",
                "id": "4b42ce1e-9b98-4a25-b68e-fad13311eb65",
                "name": "Extract a DataFrame from a Dataset",
                "python_path": "d3m.primitives.data_transformation.dataset_to_dataframe.Common",
                "version": "0.3.0"
            },
            "type": "PRIMITIVE"
        },
        {
            "arguments": {
                "inputs": {
                    "data": "steps.1.produce",
                    "type": "CONTAINER"
                }
            },
            "hyperparams": {
                "C": {
                    "data": 1,
                    "type": "VALUE"
                },
                "C_gridsearch": {
                    "data": {
                        "encoding": "pickle",
                        "value": "gANHwBAAAAAAAABHQDAAAAAAAABHQATMzMzMzM2HcQAu"
                    },
                    "type": "VALUE"
                },
                "add_index_columns": {
                    "data": false,
                    "type": "VALUE"
                },
                "class_weight": {
                    "data": {
                        "encoding": "pickle",
                        "value": "gANYCAAAAGJhbGFuY2VkcQAu"
                    },
                    "type": "VALUE"
                },
                "coef0": {
                    "data": 0,
                    "type": "VALUE"
                },
                "cv_score": {
                    "data": "accuracy",
                    "type": "VALUE"
                },
                "degree": {
                    "data": 3,
                    "type": "VALUE"
                },
                "gamma": {
                    "data": {
                        "case": "auto",
                        "value": "auto"
                    },
                    "type": "VALUE"
                },
                "gamma_gridsearch": {
                    "data": {
                        "encoding": "pickle",
                        "value": "gANHwBAAAAAAAABHQDAAAAAAAABHQATMzMzMzM2HcQAu"
                    },
                    "type": "VALUE"
                },
                "kernel": {
                    "data": "rbf",
                    "type": "VALUE"
                },
                "max_iter": {
                    "data": -1,
                    "type": "VALUE"
                },
                "n_jobs": {
                    "data": 4,
                    "type": "VALUE"
                },
                "probability": {
                    "data": false,
                    "type": "VALUE"
                },
                "return_result": {
                    "data": "new",
                    "type": "VALUE"
                },
                "shrinking": {
                    "data": true,
                    "type": "VALUE"
                },
                "tol": {
                    "data": 0.001,
                    "type": "VALUE"
                },
                "use_semantic_types": {
                    "data": false,
                    "type": "VALUE"
                }
            },
            "outputs": [
                {
                    "id": "produce"
                }
            ],
            "primitive": {
                "digest": "f06f35828a3210da6ace70bb562a8b0bb6b71f1ec44fb3ac0d59d0d1d7fd038d",
                "id": "3fd60679-cc91-3703-9ce5-34098babbbdc",
                "name": "lupi_svm.LupiSvmClassifier",
                "python_path": "d3m.primitives.classification.lupi_svm.LupiSvmClassifier",
                "version": "v6.0.0"
            },
            "type": "PRIMITIVE"
        },
        {
            "arguments": {
                "inputs": {
                    "data": "steps.2.produce",
                    "type": "CONTAINER"
                },
                "reference": {
                    "data": "steps.1.produce",
                    "type": "CONTAINER"
                }
            },
            "outputs": [
                {
                    "id": "produce"
                }
            ],
            "primitive": {
                "digest": "96382129c2d9e87a2c0ab0b477b410947e5644d4dfae24e905d16a72d32dc41b",
                "id": "8d38b340-f83f-4877-baaa-162f8e551736",
                "name": "Construct pipeline predictions output",
                "python_path": "d3m.primitives.data_transformation.construct_predictions.DataFrameCommon",
                "version": "0.3.0"
            },
            "type": "PRIMITIVE"
        }
    ]
}
